<svg width="24" height="15" viewBox="0 0 24 15" fill="none" xmlns="http://www.w3.org/2000/svg">
<path d="M21.18 0.179932L12 9.33993L2.82 0.179932L0 2.99993L12 14.9999L24 2.99993L21.18 0.179932Z" fill="currentColor"/>
</svg>
