<svg xmlns="http://www.w3.org/2000/svg" width="18" height="18" class="collapsible-tabs-module-cgCollapsibleTabs__menuOptionIcon--1bZlI">
  <g fill="none" fill-rule="evenodd">
    <path d="M0 0h18v18H0z"></path>
    <path fill="#5b616d" fill-rule="nonzero" d="M13.613 1.012l-3 3a.372.372 0 00-.113.27v6.128c0 .322.383.495.623.277l3-2.7a.36.36 0 00.127-.277V1.282a.375.375 0 00-.637-.27zm3.24 2.888c-.353-.18-.72-.33-1.103-.458v9.023A7.726 7.726 0 0013.125 12C11.7 12 10.29 12.405 9 13.185V4.11a8.193 8.193 0 00-7.853-.21.73.73 0 00-.397.66v9.06c0 .57.607.923 1.11.653.907-.473 1.927-.773 3.015-.773 1.553 0 2.985.615 4.125 1.5 1.14-.885 2.572-1.5 4.125-1.5 1.088 0 2.107.3 3.015.78a.748.748 0 001.11-.652V4.56a.73.73 0 00-.398-.66z"></path>
  </g>
</svg>